[
  {
    "Nimi": "Henn",
    "Vanus": 63
  },
  {
    "Nimi": "Ants",
    "Vanus": 40
  },
  {
    "Nimi": "Peeter",
    "Vanus": 29
  },
  {
    "Nimi": "Kalle",
    "Vanus": 22
  },
  {
    "Nimi": "Tiit",
    "Vanus": 60
  },
  {
    "Nimi": "Malle",
    "Vanus": 19
  },
  {
    "Nimi": "Ülle",
    "Vanus": 19
  },
  {
    "Nimi": "Joosep",
    "Vanus": 198
  },
  {
    "Nimi": "Jaagup",
    "Vanus": 23
  },
  {
    "Nimi": "Jaagup2",
    "Vanus": 100
  }
]